…
```r
population_long <- population %>% 
  pivot_longer(cols = contains("X"), names_to = "year", values_to = "population") %>% 
  separate(year, into = c("var1", "year"), sep = "X") %>% 
  select(-var1)
population_long
```

```
## # A tibble: 58,695 × 3
##    country     year  population
##    <chr>       <chr>      <int>
##  1 Afghanistan 1800     3280000
##  2 Afghanistan 1801     3280000
##  3 Afghanistan 1802     3280000
##  4 Afghanistan 1803     3280000
##  5 Afghanistan 1804     3280000
##  6 Afghanistan 1805     3280000
##  7 Afghanistan 1806     3280000
##  8 Afghanistan 1807     3280000
##  9 Afghanistan 1808     3280000
## 10 Afghanistan 1809     3280000
## # … with 58,685 more rows
```
…
```r
economy_long <- economy %>% 
  pivot_longer(cols = contains("X"), names_to = "year", values_to = "income_per_person_gdppercapita_ppp_inflation_adjusted") %>% 
  separate(year, into = c("var1", "year"), sep = "X") %>% 
  select(-var1)
economy_long
```

```
## # A tibble: 46,513 × 3
##    country     year  income_per_person_gdppercapita_ppp_inflation_adjusted
##    <chr>       <chr>                                                 <int>
##  1 Afghanistan 1800                                                    603
##  2 Afghanistan 1801                                                    603
##  3 Afghanistan 1802                                                    603
##  4 Afghanistan 1803                                                    603
##  5 Afghanistan 1804                                                    603
##  6 Afghanistan 1805                                                    603
##  7 Afghanistan 1806                                                    603
##  8 Afghanistan 1807                                                    603
##  9 Afghanistan 1808                                                    603
## 10 Afghanistan 1809                                                    603
## # … with 46,503 more rows
```
…
```r
life_exp_long <- life_exp %>% 
  pivot_longer(cols = contains("X"), names_to = "year", values_to = "life_expectancy_years") %>% 
  separate(year, into = c("var1", "year"), sep = "X") %>% 
  select(-var1)
life_exp_long
```

```
## # A tibble: 56,287 × 3
##    country     year  life_expectancy_years
##    <chr>       <chr>                 <dbl>
##  1 Afghanistan 1800                   28.2
##  2 Afghanistan 1801                   28.2
##  3 Afghanistan 1802                   28.2
##  4 Afghanistan 1803                   28.2
##  5 Afghanistan 1804                   28.2
##  6 Afghanistan 1805                   28.2
##  7 Afghanistan 1806                   28.1
##  8 Afghanistan 1807                   28.1
##  9 Afghanistan 1808                   28.1
## 10 Afghanistan 1809                   28.1
## # … with 56,277 more rows
```
…
```r
economy_long %>% 
  group_by(country) %>% 
  filter(between(year, 1920, 2022)) %>% 
  summarize(gdp_per_capita_change = max(income_per_person_gdppercapita_ppp_inflation_adjusted) - min(income_per_person_gdppercapita_ppp_inflation_adjusted)) %>% 
  arrange(desc(gdp_per_capita_change))
```

```
## # A tibble: 193 × 2
##    country              gdp_per_capita_change
##    <chr>                                <int>
##  1 United Arab Emirates                177840
##  2 Qatar                               176920
##  3 Brunei                              163870
##  4 Kuwait                              141560
##  5 Luxembourg                           92170
##  6 Singapore                            90460
##  7 San Marino                           87520
##  8 Ireland                              71980
##  9 Norway                               60920
## 10 Saudi Arabia                         60210
## # … with 183 more rows
```
…
```r
population_100 <- population_long %>% 
  filter(between(year, 1920, 2020))
population_100
```

```
## # A tibble: 19,695 × 3
##    country     year  population
##    <chr>       <chr>      <int>
##  1 Afghanistan 1920    10600000
##  2 Afghanistan 1921    10500000
##  3 Afghanistan 1922    10300000
##  4 Afghanistan 1923     9710000
##  5 Afghanistan 1924     9200000
##  6 Afghanistan 1925     8720000
##  7 Afghanistan 1926     8260000
##  8 Afghanistan 1927     7830000
##  9 Afghanistan 1928     7420000
## 10 Afghanistan 1929     7100000
## # … with 19,685 more rows
```


```r
life_expectancy_100 <- life_exp_long %>% 
  filter(between(year, 1920, 2020))
life_expectancy_100
```

```
## # A tibble: 18,887 × 3
##    country     year  life_expectancy_years
##    <chr>       <chr>                 <dbl>
##  1 Afghanistan 1920                   30.6
##  2 Afghanistan 1921                   30.7
##  3 Afghanistan 1922                   30.8
##  4 Afghanistan 1923                   30.8
##  5 Afghanistan 1924                   30.9
##  6 Afghanistan 1925                   31  
##  7 Afghanistan 1926                   31  
##  8 Afghanistan 1927                   31.1
##  9 Afghanistan 1928                   31.1
## 10 Afghanistan 1929                   31.2
## # … with 18,877 more rows
```


```r
income_100 <- economy_long %>% 
  filter(between(year, 1920, 2020))
income_100
```

```
## # A tibble: 19,493 × 3
##    country     year  income_per_person_gdppercapita_ppp_inflation_adjusted
##    <chr>       <chr>                                                 <int>
##  1 Afghanistan 1920                                                   1490
##  2 Afghanistan 1921                                                   1520
##  3 Afghanistan 1922                                                   1550
##  4 Afghanistan 1923                                                   1570
##  5 Afghanistan 1924                                                   1600
##  6 Afghanistan 1925                                                   1630
##  7 Afghanistan 1926                                                   1650
##  8 Afghanistan 1927                                                   1680
##  9 Afghanistan 1928                                                   1710
## 10 Afghanistan 1929                                                   1740
## # … with 19,483 more rows
```


```r
gapminder_join <- inner_join(life_expectancy_100, population_100, by= c("country", "year"))
gapminder_join <- inner_join(gapminder_join, income_100, by= c("country", "year"))
gapminder_join
```

```
## # A tibble: 18,887 × 5
##    country     year  life_expectancy_years population income_per_person_gdpperc…
##    <chr>       <chr>                 <dbl>      <int>                      <int>
##  1 Afghanistan 1920                   30.6   10600000                       1490
##  2 Afghanistan 1921                   30.7   10500000                       1520
##  3 Afghanistan 1922                   30.8   10300000                       1550
##  4 Afghanistan 1923                   30.8    9710000                       1570
##  5 Afghanistan 1924                   30.9    9200000                       1600
##  6 Afghanistan 1925                   31      8720000                       1630
##  7 Afghanistan 1926                   31      8260000                       1650
##  8 Afghanistan 1927                   31.1    7830000                       1680
##  9 Afghanistan 1928                   31.1    7420000                       1710
## 10 Afghanistan 1929                   31.2    7100000                       1740
## # … with 18,877 more rows
```
…
```
## Warning in country == c("United Arab Emirates", "Qatar", "Brunei", "Kuwait", :
## longer object length is not a multiple of shorter object length
```

```r
top_5
```

```
## # A tibble: 101 × 3
##    country life_expectancy_years income_per_person_gdppercapita_ppp_inflation_a…
##    <chr>                   <dbl>                                           <int>
##  1 Brunei                   36.3                                            2160
##  2 Brunei                   39.6                                            2210
##  3 Brunei                   42.8                                            4120
##  4 Brunei                   46                                              8900
##  5 Brunei                   49.2                                           19600
##  6 Brunei                   52.4                                           43500
##  7 Brunei                   55                                             64000
##  8 Brunei                   57.7                                           71500
##  9 Brunei                   60.2                                           79800
## 10 Brunei                   62.1                                           88900
## # … with 91 more rows
```
…
```
## Warning in country == c("Burundi", "Somalia", "Niger", "Malawi", "Sierra
## Leone"): longer object length is not a multiple of shorter object length
```

```r
bottom_5
```

```
## # A tibble: 101 × 3
##    country life_expectancy_years income_per_person_gdppercapita_ppp_inflation_a…
##    <chr>                   <dbl>                                           <int>
##  1 Burundi                  32.1                                             472
##  2 Burundi                  26.5                                             479
##  3 Burundi                  32.2                                             487
##  4 Burundi                  32.2                                             494
##  5 Burundi                  30.9                                             509
##  6 Burundi                  36.6                                             528
##  7 Burundi                  40.3                                             577
##  8 Burundi                  41.9                                             637
##  9 Burundi                  43.6                                             606
## 10 Burundi                  45                                               668
## # … with 91 more rows
```
…
