…
```r
uc_admit
```

```
## # A tibble: 2,160 × 6
##    Campus Academic_Yr Category   Ethnicity        `Perc FR` FilteredCountFR
##    <chr>        <dbl> <chr>      <chr>            <chr>               <dbl>
##  1 Davis         2019 Applicants International    21.16%              16522
##  2 Davis         2019 Applicants Unknown          2.51%                1959
##  3 Davis         2019 Applicants White            18.39%              14360
##  4 Davis         2019 Applicants Asian            30.76%              24024
##  5 Davis         2019 Applicants Chicano/Latino   22.44%              17526
##  6 Davis         2019 Applicants American Indian  0.35%                 277
##  7 Davis         2019 Applicants African American 4.39%                3425
##  8 Davis         2019 Applicants All              100.00%             78093
##  9 Davis         2018 Applicants International    19.87%              15507
## 10 Davis         2018 Applicants Unknown          2.83%                2208
## # … with 2,150 more rows
```
…
```r
gabon
```

```
## # A tibble: 24 × 26
##    TransectID Distance HuntCat  NumHouseholds LandUse Veg_Rich Veg_Stems
##         <dbl>    <dbl> <chr>            <dbl> <chr>      <dbl>     <dbl>
##  1          1     7.14 Moderate            54 Park        16.7      31.2
##  2          2    17.3  None                54 Park        15.8      37.4
##  3          2    18.3  None                29 Park        16.9      32.3
##  4          3    20.8  None                29 Logging     12.4      29.4
##  5          4    16.0  None                29 Park        17.1      36  
##  6          5    17.5  None                29 Park        16.5      29.2
##  7          6    24.1  None                29 Park        14.8      31.2
##  8          7    19.8  None                54 Logging     13.2      32.6
##  9          8     5.78 High                25 Neither     12.6      23.7
## 10          9     5.13 High                73 Logging     16        27.1
## # … with 14 more rows, and 19 more variables: Veg_liana <dbl>, Veg_DBH <dbl>,
## #   Veg_Canopy <dbl>, Veg_Understory <dbl>, RA_Apes <dbl>, RA_Birds <dbl>,
## #   RA_Elephant <dbl>, RA_Monkeys <dbl>, RA_Rodent <dbl>, RA_Ungulate <dbl>,
## #   Rich_AllSpecies <dbl>, Evenness_AllSpecies <dbl>,
## #   Diversity_AllSpecies <dbl>, Rich_BirdSpecies <dbl>,
## #   Evenness_BirdSpecies <dbl>, Diversity_BirdSpecies <dbl>,
## #   Rich_MammalSpecies <dbl>, Evenness_MammalSpecies <dbl>, …
```
…
```r
miss_var_summary(gabon)
```

```
## # A tibble: 26 × 3
##    variable      n_miss pct_miss
##    <chr>          <int>    <dbl>
##  1 TransectID         0        0
##  2 Distance           0        0
##  3 HuntCat            0        0
##  4 NumHouseholds      0        0
##  5 LandUse            0        0
##  6 Veg_Rich           0        0
##  7 Veg_Stems          0        0
##  8 Veg_liana          0        0
##  9 Veg_DBH            0        0
## 10 Veg_Canopy         0        0
## # … with 16 more rows
```
…
```r
gabon_long <- gabon %>% 
  clean_names() %>% 
  select(distance, contains("ra_")) %>% 
  pivot_longer(cols = c(ra_apes, ra_birds, ra_elephant, ra_monkeys, ra_rodent, ra_ungulate),
               names_to = "abundance",
               values_to = "ra") %>% 
  separate(col = abundance, sep = "_", into = c("x","taxonomic_group")) %>% 
  select(-x)
gabon_long
```

```
## # A tibble: 144 × 3
##    distance taxonomic_group    ra
##       <dbl> <chr>           <dbl>
##  1     7.14 apes             1.87
##  2     7.14 birds           52.7 
##  3     7.14 elephant         0   
##  4     7.14 monkeys         38.6 
##  5     7.14 rodent           4.22
##  6     7.14 ungulate         2.66
##  7    17.3  apes             0   
##  8    17.3  birds           52.2 
##  9    17.3  elephant         0.86
## 10    17.3  monkeys         28.5 
## # … with 134 more rows
```
…
