…
**1. Use the function(s) of your choice to get an idea of its structure, including how NA's are treated. Are the data tidy?**

Data Organization

```r
deserts
```

```
## # A tibble: 34,786 × 13
##    record_id month   day  year plot_id species_id sex   hindfoot_length weight
##        <dbl> <dbl> <dbl> <dbl>   <dbl> <chr>      <chr>           <dbl>  <dbl>
##  1         1     7    16  1977       2 NL         M                  32     NA
##  2         2     7    16  1977       3 NL         M                  33     NA
##  3         3     7    16  1977       2 DM         F                  37     NA
##  4         4     7    16  1977       7 DM         M                  36     NA
##  5         5     7    16  1977       3 DM         M                  35     NA
##  6         6     7    16  1977       1 PF         M                  14     NA
##  7         7     7    16  1977       2 PE         F                  NA     NA
##  8         8     7    16  1977       1 DM         M                  37     NA
##  9         9     7    16  1977       1 DM         F                  34     NA
## 10        10     7    16  1977       6 PF         F                  20     NA
## # … with 34,776 more rows, and 4 more variables: genus <chr>, species <chr>,
## #   taxa <chr>, plot_type <chr>
```
…
**4. For the taxa included in the study, use the fill option to show the proportion of individuals sampled by `plot_type.`**

Reference

```r
taxa_prop_plot <- deserts %>% 
  group_by(taxa, plot_type) %>% 
  count(taxa, species)
taxa_prop_plot
```

```
## # A tibble: 163 × 4
## # Groups:   taxa, plot_type [19]
##    taxa  plot_type                species             n
##    <chr> <chr>                    <chr>           <int>
##  1 Bird  Control                  bilineata          76
##  2 Bird  Control                  brunneicapillus    13
##  3 Bird  Control                  chlorurus           8
##  4 Bird  Control                  gramineus           3
##  5 Bird  Control                  melanocorys         2
##  6 Bird  Control                  savannarum          1
##  7 Bird  Control                  sp.                 5
##  8 Bird  Control                  squamata            2
##  9 Bird  Long-term Krat Exclosure bilineata          41
## 10 Bird  Long-term Krat Exclosure brunneicapillus     6
## # … with 153 more rows
```
…
Reference

```r
deserts %>% 
  select(species, weight) %>% 
  group_by(species) %>% 
  filter(weight!=is.na(weight)) %>% 
  summarize(min_weight = min(weight),
            median_weight = median(weight),
            max_weight = max(weight))
```

```
## # A tibble: 22 × 4
##    species     min_weight median_weight max_weight
##    <chr>            <dbl>         <dbl>      <dbl>
##  1 albigula            30         164          280
##  2 baileyi             12          31           55
##  3 eremicus             8          22           40
##  4 flavus               4           8           25
##  5 fulvescens           9          13           20
##  6 fulviventer         24          50          199
##  7 hispidus            16          64.5        140
##  8 intermedius         17          19.5         21
##  9 leucogaster         10          32           56
## 10 leucopus             8          20           27
## # … with 12 more rows
```
…
**6. Add another layer to your answer from #4 using `geom_point` to get an idea of how many measurements were taken for each species.**

Reference

```r
deserts %>% 
  count(taxa, species) %>% 
  arrange(desc(species))
```

```
## # A tibble: 42 × 3
##    taxa    species          n
##    <chr>   <chr>        <int>
##  1 Reptile viridis          1
##  2 Reptile uniparens        1
##  3 Reptile undulatus        5
##  4 Rodent  torridus      2249
##  5 Reptile tigris           1
##  6 Rodent  tereticaudus     1
##  7 Rodent  taylori         46
##  8 Bird    squamata        16
##  9 Rodent  spilosoma      248
## 10 Rodent  spectabilis   2504
## # … with 32 more rows
```
…
**7. [Dipodomys merriami](https://en.wikipedia.org/wiki/Merriam's_kangaroo_rat) is the most frequently sampled animal in the study. How have the number of observations of this species changed over the years included in the study?**

Reference

```r
merriami_by_year <- deserts %>% 
  filter(species == "merriami") %>% 
  group_by(year) %>% 
  count(species)
merriami_by_year
```

```
## # A tibble: 26 × 3
## # Groups:   year [26]
##     year species      n
##    <dbl> <chr>    <int>
##  1  1977 merriami   264
##  2  1978 merriami   389
##  3  1979 merriami   209
##  4  1980 merriami   493
##  5  1981 merriami   559
##  6  1982 merriami   609
##  7  1983 merriami   528
##  8  1984 merriami   396
##  9  1985 merriami   667
## 10  1986 merriami   406
## # … with 16 more rows
```
…
**8. What is the relationship between `weight` and `hindfoot` length? Consider whether or not over plotting is an issue.**

Reference

```r
deserts %>% 
  select(weight, hindfoot_length)
```

```
## # A tibble: 34,786 × 2
##    weight hindfoot_length
##     <dbl>           <dbl>
##  1     NA              32
##  2     NA              33
##  3     NA              37
##  4     NA              36
##  5     NA              35
##  6     NA              14
##  7     NA              NA
##  8     NA              37
##  9     NA              34
## 10     NA              20
## # … with 34,776 more rows
```
…
Reference

```r
top2_wt <- deserts %>% 
  group_by(species) %>%
  filter(species == "albigula" | species == "spectabilis",
         weight != is.na(weight),
         hindfoot_length != is.na(hindfoot_length)) %>% 
  select(species, sex, weight, hindfoot_length) %>% 
  mutate(wt_hindft_ratio = weight/hindfoot_length)
top2_wt
```

```
## # A tibble: 3,072 × 5
## # Groups:   species [2]
##    species     sex   weight hindfoot_length wt_hindft_ratio
##    <chr>       <chr>  <dbl>           <dbl>           <dbl>
##  1 spectabilis F        117              50            2.34
##  2 spectabilis F        121              51            2.37
##  3 spectabilis M        115              51            2.25
##  4 spectabilis F        120              48            2.5 
##  5 spectabilis F        118              48            2.46
##  6 spectabilis F        126              52            2.42
##  7 spectabilis M        132              50            2.64
##  8 spectabilis F        122              53            2.30
##  9 spectabilis F        107              48            2.23
## 10 spectabilis F        115              50            2.3 
## # … with 3,062 more rows
```
…
**10. Make one plot of your choice! Make sure to include at least two of the aesthetics options you have learned.**

What are the relative species abundances by taxa in the data?

Reference

```r
deserts %>% 
  group_by(taxa) %>% 
  count(species)
```

```
## # A tibble: 42 × 3
## # Groups:   taxa [4]
##    taxa  species             n
##    <chr> <chr>           <int>
##  1 Bird  bilineata         303
##  2 Bird  brunneicapillus    50
##  3 Bird  chlorurus          39
##  4 Bird  fuscus              5
##  5 Bird  gramineus           8
##  6 Bird  leucophrys          2
##  7 Bird  melanocorys        13
##  8 Bird  savannarum          2
##  9 Bird  sp.                12
## 10 Bird  squamata           16
## # … with 32 more rows
```
…
