…
```r
options(scipen=999) 
```

Overview

```r
gapminder
```

```
## # A tibble: 1,704 × 6
##    country     continent  year lifeExp      pop gdpPercap
##    <fct>       <fct>     <int>   <dbl>    <int>     <dbl>
##  1 Afghanistan Asia       1952    28.8  8425333      779.
##  2 Afghanistan Asia       1957    30.3  9240934      821.
##  3 Afghanistan Asia       1962    32.0 10267083      853.
##  4 Afghanistan Asia       1967    34.0 11537966      836.
##  5 Afghanistan Asia       1972    36.1 13079460      740.
##  6 Afghanistan Asia       1977    38.4 14880372      786.
##  7 Afghanistan Asia       1982    39.9 12881816      978.
##  8 Afghanistan Asia       1987    40.8 13867957      852.
##  9 Afghanistan Asia       1992    41.7 16317921      649.
## 10 Afghanistan Asia       1997    41.8 22227415      635.
## # … with 1,694 more rows
```
…
**3. How do the distributions of life expectancy compare for the years 1952 and 2007?**

Reference: Life Expectancy Frequency (1952)

```r
lifeExp_1952 <- gapminder %>% 
  select(year, lifeExp) %>% 
  filter(year == 1952) %>% 
  arrange(lifeExp)
lifeExp_1952
```

```
## # A tibble: 142 × 2
##     year lifeExp
##    <int>   <dbl>
##  1  1952    28.8
##  2  1952    30  
##  3  1952    30.0
##  4  1952    30.3
##  5  1952    31.3
##  6  1952    32.0
##  7  1952    32.5
##  8  1952    32.5
##  9  1952    33.0
## 10  1952    33.6
## # … with 132 more rows
```
…
Reference: Life Expectancy Frequency (2007)

```r
lifeExp_2007 <- gapminder %>% 
  select(year, lifeExp) %>% 
  filter(year == 2007) %>% 
  arrange(lifeExp)
lifeExp_2007
```

```
## # A tibble: 142 × 2
##     year lifeExp
##    <int>   <dbl>
##  1  2007    39.6
##  2  2007    42.1
##  3  2007    42.4
##  4  2007    42.6
##  5  2007    42.6
##  6  2007    42.7
##  7  2007    43.5
##  8  2007    43.8
##  9  2007    44.7
## 10  2007    45.7
## # … with 132 more rows
```
…
Reference: Life Expectancy Frequency (1952, 2007)

```r
gapminder %>% 
  select(year, lifeExp) %>% 
  filter(year == 1952 | year == 2007) %>% 
  arrange(lifeExp)
```

```
## # A tibble: 284 × 2
##     year lifeExp
##    <int>   <dbl>
##  1  1952    28.8
##  2  1952    30  
##  3  1952    30.0
##  4  1952    30.3
##  5  1952    31.3
##  6  1952    32.0
##  7  1952    32.5
##  8  1952    32.5
##  9  1952    33.0
## 10  1952    33.6
## # … with 274 more rows
```
…
```
## `summarise()` has grouped output by 'continent'. You can override using the `.groups` argument.
```

```r
lifeExp_continent_yr
```

```
## # A tibble: 60 × 3
## # Groups:   continent [5]
##    continent  year avg_lifeExp
##    <fct>     <int>       <dbl>
##  1 Africa     1952        39.1
##  2 Africa     1957        41.3
##  3 Africa     1962        43.3
##  4 Africa     1967        45.3
##  5 Africa     1972        47.5
##  6 Africa     1977        49.6
##  7 Africa     1982        51.6
##  8 Africa     1987        53.3
##  9 Africa     1992        53.6
## 10 Africa     1997        53.6
## # … with 50 more rows
```
…
**6. We are interested in the relationship between per capita GDP and life expectancy; i.e. does having more money help you live longer?**

Reference: Life Expectancy vs. GDP per Capita

```r
gapminder %>% 
  select(gdpPercap, lifeExp) %>% 
  arrange(gdpPercap)
```

```
## # A tibble: 1,704 × 2
##    gdpPercap lifeExp
##        <dbl>   <dbl>
##  1      241.    45.0
##  2      278.    46.5
##  3      299.    42.1
##  4      300.    32.5
##  5      312.    42.6
##  6      329.    35.9
##  7      331     36.3
##  8      336.    45.0
##  9      339.    39.0
## 10      344.    38.0
## # … with 1,694 more rows
```
…
**7. Which countries have had the largest population growth since 1952?**


```r
country_pop_growth <- gapminder %>% 
  select(country, pop, year) %>% 
  filter(year == max(year) | year == min(year)) %>% 
  group_by(country) %>% 
  summarize(pop_growth = max(pop)-min(pop)) %>% 
  arrange(desc(pop_growth))
country_pop_growth
```

```
## # A tibble: 142 × 2
##    country       pop_growth
##    <fct>              <int>
##  1 China          762419569
##  2 India          738396331
##  3 United States  143586947
##  4 Indonesia      141495000
##  5 Brazil         133408087
##  6 Pakistan       127924057
##  7 Bangladesh     103561480
##  8 Nigeria        101912068
##  9 Mexico          78556574
## 10 Philippines     68638596
## # … with 132 more rows
```
…
Reference: GDP per Capita Growth (Over Time)

```r
gapminder %>% 
  filter(country %in% c("Brazil","China","India","Indonesia","United States")) %>% 
  select(country, year, gdpPercap)
```

```
## # A tibble: 60 × 3
##    country  year gdpPercap
##    <fct>   <int>     <dbl>
##  1 Brazil   1952     2109.
##  2 Brazil   1957     2487.
##  3 Brazil   1962     3337.
##  4 Brazil   1967     3430.
##  5 Brazil   1972     4986.
##  6 Brazil   1977     6660.
##  7 Brazil   1982     7031.
##  8 Brazil   1987     7807.
##  9 Brazil   1992     6950.
## 10 Brazil   1997     7958.
## # … with 50 more rows
```
…
```r
country_size_set <- gapminder %>% #set country size categories based on 1952 standards
  mutate(country_size = case_when(pop < 1452026 ~"small",
                                  pop >= 1452026 & pop < 3943953 ~"medium",
                                  pop >= 3943953 & pop < 9168198 ~ "large",
                                  pop >= 9168198 ~"very_large"))
country_size_set
```

```
## # A tibble: 1,704 × 7
##    country     continent  year lifeExp      pop gdpPercap country_size
##    <fct>       <fct>     <int>   <dbl>    <int>     <dbl> <chr>       
##  1 Afghanistan Asia       1952    28.8  8425333      779. large       
##  2 Afghanistan Asia       1957    30.3  9240934      821. very_large  
##  3 Afghanistan Asia       1962    32.0 10267083      853. very_large  
##  4 Afghanistan Asia       1967    34.0 11537966      836. very_large  
##  5 Afghanistan Asia       1972    36.1 13079460      740. very_large  
##  6 Afghanistan Asia       1977    38.4 14880372      786. very_large  
##  7 Afghanistan Asia       1982    39.9 12881816      978. very_large  
##  8 Afghanistan Asia       1987    40.8 13867957      852. very_large  
##  9 Afghanistan Asia       1992    41.7 16317921      649. very_large  
## 10 Afghanistan Asia       1997    41.8 22227415      635. very_large  
## # … with 1,694 more rows
```


```r
country_size_list <- country_size_set %>% #list each country with their 1952 size
  filter(year == 1952) %>% 
  select(country, country_size)
country_size_list
```

```
## # A tibble: 142 × 2
##    country     country_size
##    <fct>       <chr>       
##  1 Afghanistan large       
##  2 Albania     small       
##  3 Algeria     very_large  
##  4 Angola      large       
##  5 Argentina   very_large  
##  6 Australia   large       
##  7 Austria     large       
##  8 Bahrain     small       
##  9 Bangladesh  very_large  
## 10 Belgium     large       
## # … with 132 more rows
```


```r
growth_potential <- country_size_set %>% #find %population growth from 1952 to 2007
  filter(year == 1952 | year == 2007) %>% 
  group_by(country) %>% 
  summarize(percent_pop_growth = 100*max(pop)/min(pop)) %>% 
  mutate(country_size_list) #juxtapose %population growth with 1952 size
growth_potential %>% 
  arrange(desc(percent_pop_growth)) #view largest %population growths
```

```
## # A tibble: 142 × 3
##    country       percent_pop_growth country_size
##    <fct>                      <dbl> <chr>       
##  1 Kuwait                     1566. small       
##  2 Jordan                      996. small       
##  3 Djibouti                    786. small       
##  4 Saudi Arabia                689. large       
##  5 Oman                        631. small       
##  6 Cote d'Ivoire               605. medium      
##  7 Gambia                      594. small       
##  8 Libya                       592. small       
##  9 Bahrain                     588. small       
## 10 Kenya                       551. large       
## # … with 132 more rows
```
…
